EESchema Schematic File Version 2
LIBS:power
LIBS:device
LIBS:transistors
LIBS:conn
LIBS:linear
LIBS:regul
LIBS:74xx
LIBS:cmos4000
LIBS:adc-dac
LIBS:memory
LIBS:xilinx
LIBS:special
LIBS:microcontrollers
LIBS:dsp
LIBS:microchip
LIBS:analog_switches
LIBS:motorola
LIBS:texas
LIBS:intel
LIBS:audio
LIBS:interface
LIBS:digital-audio
LIBS:philips
LIBS:display
LIBS:cypress
LIBS:siliconi
LIBS:opto
LIBS:atmel
LIBS:contrib
LIBS:valves
LIBS:extra
LIBS:project-cache
EELAYER 27 0
EELAYER END
$Descr A4 11693 8268
encoding utf-8
Sheet 1 1
Title ""
Date "4 dec 2014"
Rev ""
Comp ""
Comment1 ""
Comment2 ""
Comment3 ""
Comment4 ""
$EndDescr
$Comp
L DIODE D2
U 1 1 547D56D3
P 3000 4100
F 0 "D2" H 3000 4200 40  0000 C CNN
F 1 "1N4007" H 3000 4000 40  0000 C CNN
F 2 "D3" H 2850 4150 39  0000 C CNN
F 3 "~" H 3000 4100 60  0000 C CNN
	1    3000 4100
	-1   0    0    -1  
$EndComp
$Comp
L DIODE D4
U 1 1 547D589A
P 3600 4100
F 0 "D4" H 3600 4200 40  0000 C CNN
F 1 "1N4007" H 3600 4000 40  0000 C CNN
F 2 "D3" H 3750 4150 39  0000 C CNN
F 3 "~" H 3600 4100 60  0000 C CNN
	1    3600 4100
	1    0    0    -1  
$EndComp
$Comp
L DIODE D1
U 1 1 547D58A0
P 3000 3800
F 0 "D1" H 3000 3900 40  0000 C CNN
F 1 "1N4007" H 3000 3700 40  0000 C CNN
F 2 "D3" H 3150 3850 39  0000 C CNN
F 3 "~" H 3000 3800 60  0000 C CNN
	1    3000 3800
	1    0    0    -1  
$EndComp
$Comp
L DIODE D3
U 1 1 547D58B5
P 3600 3800
F 0 "D3" H 3600 3900 40  0000 C CNN
F 1 "1N4007" H 3600 3700 40  0000 C CNN
F 2 "D3" H 3450 3850 39  0000 C CNN
F 3 "~" H 3600 3800 60  0000 C CNN
	1    3600 3800
	-1   0    0    -1  
$EndComp
$Comp
L R R1
U 1 1 547D593D
P 2350 4100
F 0 "R1" V 2430 4100 40  0000 C CNN
F 1 "1" V 2357 4101 40  0000 C CNN
F 2 "R1" V 2280 4100 39  0000 C CNN
F 3 "~" H 2350 4100 30  0000 C CNN
	1    2350 4100
	0    -1   -1   0   
$EndComp
$Comp
L CONN_2 P1
U 1 1 547D5B2E
P 1650 4200
F 0 "P1" V 1600 4200 40  0000 C CNN
F 1 "PWR_IN" V 1700 4200 40  0000 C CNN
F 2 "SIL-2" H 1650 4400 39  0000 C CNN
F 3 "~" H 1650 4200 60  0000 C CNN
	1    1650 4200
	-1   0    0    1   
$EndComp
$Comp
L INDUCTOR L1
U 1 1 547D5D48
P 3700 3500
F 0 "L1" V 3800 3500 40  0000 C CNN
F 1 "1m" V 3650 3500 40  0000 C CNN
F 2 "C1.5V8V" V 3800 3250 39  0000 C CNN
F 3 "~" H 3700 3500 60  0000 C CNN
	1    3700 3500
	0    -1   -1   0   
$EndComp
$Comp
L CP1 C1
U 1 1 547D5F22
P 4100 4000
F 0 "C1" H 4150 4100 50  0000 L CNN
F 1 "4u7 400V" H 4150 3900 50  0000 L CNN
F 2 "C1.5V8H" H 4300 3800 39  0000 C CNN
F 3 "~" H 4100 4000 60  0000 C CNN
	1    4100 4000
	1    0    0    -1  
$EndComp
$Comp
L R R2
U 1 1 547D6646
P 4450 3500
F 0 "R2" V 4530 3500 40  0000 C CNN
F 1 "560K" V 4457 3501 40  0000 C CNN
F 2 "SM0805" V 4380 3500 39  0000 C CNN
F 3 "~" H 4450 3500 30  0000 C CNN
	1    4450 3500
	0    -1   -1   0   
$EndComp
$Comp
L DIODE D5
U 1 1 547D66A8
P 5100 3500
F 0 "D5" H 5100 3600 40  0000 C CNN
F 1 "1N4007" H 5100 3400 40  0000 C CNN
F 2 "D3" H 5250 3550 39  0000 C CNN
F 3 "~" H 5100 3500 60  0000 C CNN
	1    5100 3500
	1    0    0    -1  
$EndComp
$Comp
L C C2
U 1 1 547D68B9
P 4500 3000
F 0 "C2" H 4500 3100 40  0000 L CNN
F 1 "2n2" H 4506 2915 40  0000 L CNN
F 2 "C2" H 4550 2850 39  0000 C CNN
F 3 "~" H 4500 3000 60  0000 C CNN
	1    4500 3000
	1    0    0    -1  
$EndComp
$Comp
L R R3
U 1 1 547D68C6
P 4900 2950
F 0 "R3" V 4980 2950 40  0000 C CNN
F 1 "330K" V 4907 2951 40  0000 C CNN
F 2 "SM0805" V 4830 2950 39  0000 C CNN
F 3 "~" H 4900 2950 30  0000 C CNN
	1    4900 2950
	-1   0    0    1   
$EndComp
$Comp
L TRANSFO2 T2
U 1 1 547D6C1A
P 7200 3900
F 0 "T2" H 7200 4350 39  0000 C CNN
F 1 "FEEDBACK" H 7200 3450 39  0000 C CNN
F 2 "TRANS_FEEDBACK" H 7200 3350 39  0000 C CNN
F 3 "~" H 7200 3900 60  0000 C CNN
	1    7200 3900
	-1   0    0    -1  
$EndComp
$Comp
L DIAC D6
U 1 1 547D70A9
P 5100 3900
F 0 "D6" H 5100 4050 40  0000 C CNN
F 1 "DB3BL" H 5100 3750 40  0000 C CNN
F 2 "D3" H 5250 3950 39  0000 C CNN
F 3 "~" H 4950 4000 60  0000 C CNN
	1    5100 3900
	1    0    0    -1  
$EndComp
$Comp
L C C3
U 1 1 547D7574
P 4800 4200
F 0 "C3" H 4800 4300 40  0000 L CNN
F 1 "22n" H 4806 4115 40  0000 L CNN
F 2 "C2" H 4850 4050 39  0000 C CNN
F 3 "~" H 4800 4200 60  0000 C CNN
	1    4800 4200
	1    0    0    -1  
$EndComp
$Comp
L R R5
U 1 1 547D7FF1
P 5400 4250
F 0 "R5" V 5480 4250 40  0000 C CNN
F 1 "51" V 5407 4251 40  0000 C CNN
F 2 "SM0805" V 5330 4250 39  0000 C CNN
F 3 "~" H 5400 4250 30  0000 C CNN
	1    5400 4250
	-1   0    0    1   
$EndComp
$Comp
L R R7
U 1 1 547D7FFC
P 5700 4250
F 0 "R7" V 5780 4250 40  0000 C CNN
F 1 "22" V 5707 4251 40  0000 C CNN
F 2 "SM0805" V 5630 4250 39  0000 C CNN
F 3 "~" H 5700 4250 30  0000 C CNN
	1    5700 4250
	-1   0    0    1   
$EndComp
$Comp
L R R4
U 1 1 547D8456
P 5400 2950
F 0 "R4" V 5480 2950 40  0000 C CNN
F 1 "51" V 5407 2951 40  0000 C CNN
F 2 "SM0805" V 5330 2950 39  0000 C CNN
F 3 "~" H 5400 2950 30  0000 C CNN
	1    5400 2950
	-1   0    0    1   
$EndComp
$Comp
L R R6
U 1 1 547D845C
P 5700 2950
F 0 "R6" V 5780 2950 40  0000 C CNN
F 1 "22" V 5707 2951 40  0000 C CNN
F 2 "SM0805" V 5630 2950 39  0000 C CNN
F 3 "~" H 5700 2950 30  0000 C CNN
	1    5700 2950
	-1   0    0    1   
$EndComp
$Comp
L R R8
U 1 1 547D9584
P 6100 3150
F 0 "R8" V 6180 3150 40  0000 C CNN
F 1 "1" V 6107 3151 40  0000 C CNN
F 2 "SM0805" V 6030 3150 39  0000 C CNN
F 3 "~" H 6100 3150 30  0000 C CNN
	1    6100 3150
	-1   0    0    1   
$EndComp
$Comp
L R R9
U 1 1 547D9742
P 6100 4450
F 0 "R9" V 6180 4450 40  0000 C CNN
F 1 "1" V 6107 4451 40  0000 C CNN
F 2 "SM0805" V 6030 4450 39  0000 C CNN
F 3 "~" H 6100 4450 30  0000 C CNN
	1    6100 4450
	-1   0    0    1   
$EndComp
$Comp
L DIODE D7
U 1 1 547D9A4A
P 6400 3100
F 0 "D7" H 6400 3200 40  0000 C CNN
F 1 "1N4007" H 6400 3000 40  0000 C CNN
F 2 "R1" H 6550 3150 39  0000 C CNN
F 3 "~" H 6400 3100 60  0000 C CNN
	1    6400 3100
	0    -1   -1   0   
$EndComp
$Comp
L DIODE D8
U 1 1 547D9AE2
P 6400 4400
F 0 "D8" H 6400 4500 40  0000 C CNN
F 1 "1N4007" H 6400 4300 40  0000 C CNN
F 2 "R1" H 6550 4450 39  0000 C CNN
F 3 "~" H 6400 4400 60  0000 C CNN
	1    6400 4400
	0    -1   -1   0   
$EndComp
$Comp
L C C4
U 1 1 547DBB7A
P 7700 4500
F 0 "C4" H 7700 4600 40  0000 L CNN
F 1 "2n2" H 7706 4415 40  0000 L CNN
F 2 "C2" H 7750 4350 39  0000 C CNN
F 3 "~" H 7700 4500 60  0000 C CNN
	1    7700 4500
	1    0    0    -1  
$EndComp
$Comp
L TRANSFO4 T1
U 1 1 547DC122
P 7200 2800
F 0 "T1" H 7200 3050 39  0000 C CNN
F 1 "CONVERT" H 7200 2550 39  0000 C CNN
F 2 "TRANS_CONVERT" H 7200 2450 39  0000 C CNN
F 3 "~" H 7200 2800 60  0000 C CNN
	1    7200 2800
	-1   0    0    -1  
$EndComp
$Comp
L C C6
U 1 1 547DD3EA
P 8000 4500
F 0 "C6" H 8000 4600 40  0000 L CNN
F 1 "47n" H 8006 4415 40  0000 L CNN
F 2 "C2" H 8050 4350 39  0000 C CNN
F 3 "~" H 8000 4500 60  0000 C CNN
	1    8000 4500
	1    0    0    -1  
$EndComp
$Comp
L C C5
U 1 1 547DD4B0
P 8000 3700
F 0 "C5" H 8000 3800 40  0000 L CNN
F 1 "47n" H 8006 3615 40  0000 L CNN
F 2 "C2" H 8050 3550 39  0000 C CNN
F 3 "~" H 8000 3700 60  0000 C CNN
	1    8000 3700
	1    0    0    -1  
$EndComp
$Comp
L C C7
U 1 1 547DE292
P 8800 2900
F 0 "C7" H 8800 3000 40  0000 L CNN
F 1 "100n" H 8806 2815 40  0000 L CNN
F 2 "SM0805" H 8950 2750 39  0000 C CNN
F 3 "~" H 8800 2900 60  0000 C CNN
	1    8800 2900
	1    0    0    -1  
$EndComp
Wire Wire Line
	3800 3800 3900 3800
Wire Wire Line
	3900 3800 3900 4300
Wire Wire Line
	3900 4100 3800 4100
Wire Wire Line
	3200 3800 3400 3800
Wire Wire Line
	3200 4100 3400 4100
Wire Wire Line
	2100 4100 2000 4100
Wire Wire Line
	3900 4300 2000 4300
Connection ~ 3900 4100
Wire Wire Line
	3300 4100 3300 4800
Connection ~ 3300 4100
Wire Wire Line
	2600 4100 2800 4100
Wire Wire Line
	2800 3800 2700 3800
Wire Wire Line
	2700 3800 2700 4100
Connection ~ 2700 4100
Wire Wire Line
	3300 3500 3300 3800
Connection ~ 3300 3800
Wire Wire Line
	3300 3500 3400 3500
Wire Wire Line
	4000 3500 4200 3500
Wire Wire Line
	4100 2300 4100 3800
Wire Wire Line
	4100 4200 4100 4800
Connection ~ 4100 3500
Wire Wire Line
	4700 3500 4900 3500
Wire Wire Line
	4900 3200 4900 3300
Wire Wire Line
	4500 3300 5400 3300
Wire Wire Line
	4500 3300 4500 3200
Wire Wire Line
	5400 3200 5400 3600
Wire Wire Line
	5400 3500 5300 3500
Connection ~ 4900 3300
Wire Wire Line
	4500 2300 4500 2800
Wire Wire Line
	4900 3900 4800 3900
Wire Wire Line
	4800 3500 4800 4000
Connection ~ 4800 3500
Connection ~ 4800 3900
Wire Wire Line
	4800 4800 4800 4400
Wire Wire Line
	3300 4800 8000 4800
Connection ~ 4100 4800
Wire Wire Line
	5300 3900 5800 3900
Wire Wire Line
	5400 3900 5400 4000
Wire Wire Line
	5700 3900 5700 4000
Connection ~ 5400 3900
Wire Wire Line
	5400 4500 5400 4800
Connection ~ 4800 4800
Connection ~ 5400 3300
Wire Wire Line
	5400 2700 5400 2600
Wire Wire Line
	5400 2600 5800 2600
Wire Wire Line
	5700 2600 5700 2700
Connection ~ 5700 2600
Connection ~ 5700 3900
Wire Wire Line
	6100 3400 6100 3700
Wire Wire Line
	5400 3600 6600 3600
Connection ~ 5400 3500
Wire Wire Line
	6100 2300 6100 2400
Wire Wire Line
	4100 2300 8000 2300
Connection ~ 4900 2300
Connection ~ 4500 2300
Wire Wire Line
	4900 2700 4900 2300
Wire Wire Line
	6100 2900 6100 2800
Connection ~ 6100 3600
Wire Wire Line
	6100 4200 6100 4100
Wire Wire Line
	6100 4800 6100 4700
Connection ~ 5400 4800
Wire Wire Line
	6400 3300 6400 4200
Wire Wire Line
	6400 2300 6400 2900
Connection ~ 6100 2300
Connection ~ 6400 3600
Wire Wire Line
	6400 4800 6400 4600
Connection ~ 6100 4800
Wire Wire Line
	6800 3800 6400 3800
Connection ~ 6400 3800
Wire Wire Line
	6800 4000 6600 4000
Wire Wire Line
	6600 4000 6600 4800
Connection ~ 6400 4800
Wire Wire Line
	6800 4300 6700 4300
Wire Wire Line
	6700 4300 6700 4900
Wire Wire Line
	6700 4900 5700 4900
Wire Wire Line
	5700 4900 5700 4500
Wire Wire Line
	6800 3500 5700 3500
Wire Wire Line
	5700 3500 5700 3200
Wire Wire Line
	6600 3600 6600 2600
Wire Wire Line
	6600 2600 6800 2600
Wire Wire Line
	6800 3000 6700 3000
Wire Wire Line
	6700 3000 6700 3200
Wire Wire Line
	6700 3200 7700 3200
Wire Wire Line
	7700 3200 7700 4300
Wire Wire Line
	7700 3700 7600 3700
Wire Wire Line
	7700 4800 7700 4700
Connection ~ 6600 4800
Connection ~ 7700 3700
Wire Wire Line
	8000 4800 8000 4700
Connection ~ 7700 4800
Wire Wire Line
	8000 3900 8000 4300
Wire Wire Line
	8000 4100 7600 4100
Connection ~ 8000 4100
Wire Wire Line
	8000 2300 8000 3500
Connection ~ 6400 2300
$Comp
L DIODE D9
U 1 1 547DEE3E
P 8300 2600
F 0 "D9" H 8300 2700 40  0000 C CNN
F 1 "SS14" H 8300 2500 40  0000 C CNN
F 2 "SM1206POL" H 8550 2650 39  0000 C CNN
F 3 "~" H 8300 2600 60  0000 C CNN
	1    8300 2600
	1    0    0    -1  
$EndComp
$Comp
L DIODE D10
U 1 1 547DF0A5
P 8300 3000
F 0 "D10" H 8300 3100 40  0000 C CNN
F 1 "SS14" H 8300 2900 40  0000 C CNN
F 2 "SM1206POL" H 8550 2950 39  0000 C CNN
F 3 "~" H 8300 3000 60  0000 C CNN
	1    8300 3000
	1    0    0    -1  
$EndComp
Wire Wire Line
	7600 2600 8100 2600
Wire Wire Line
	7600 3000 8100 3000
$Comp
L CP1 C8
U 1 1 547DF515
P 9100 2900
F 0 "C8" H 9150 3000 50  0000 L CNN
F 1 "100u 35V" H 9150 2800 50  0000 L CNN
F 2 "C1V7" H 9300 2700 39  0000 C CNN
F 3 "~" H 9100 2900 60  0000 C CNN
	1    9100 2900
	1    0    0    -1  
$EndComp
Wire Wire Line
	9100 3200 9100 3100
Wire Wire Line
	7900 3200 9600 3200
Wire Wire Line
	8800 3200 8800 3100
Wire Wire Line
	8500 3000 8600 3000
Wire Wire Line
	8600 3000 8600 2600
Wire Wire Line
	8500 2600 9600 2600
Wire Wire Line
	9100 2600 9100 2700
Wire Wire Line
	8800 2600 8800 2700
Connection ~ 8600 2600
Connection ~ 8800 2600
Wire Wire Line
	7600 2800 7900 2800
Wire Wire Line
	7900 2800 7900 3200
Connection ~ 8800 3200
$Comp
L CONN_2 P2
U 1 1 547E04E5
P 10050 2900
F 0 "P2" V 10000 2900 40  0000 C CNN
F 1 "PWR_OUT" V 10100 2900 40  0000 C CNN
F 2 "SIL-2" H 10050 3100 39  0000 C CNN
F 3 "~" H 10050 2900 60  0000 C CNN
	1    10050 2900
	1    0    0    1   
$EndComp
Wire Wire Line
	9700 2800 9600 2800
Wire Wire Line
	9600 2800 9600 2600
Connection ~ 9100 2600
Wire Wire Line
	9700 3000 9600 3000
Wire Wire Line
	9600 3000 9600 3200
Connection ~ 9100 3200
$Comp
L 2SC1815 Q1
U 1 1 547E477E
P 6000 2600
F 0 "Q1" H 5950 2750 40  0000 R CNN
F 1 "LB120A" H 6350 2700 40  0000 R CNN
F 2 "TO92" H 6250 2600 39  0000 C CNN
F 3 "~" H 6000 2600 60  0000 C CNN
	1    6000 2600
	1    0    0    -1  
$EndComp
$Comp
L 2SC1815 Q2
U 1 1 547E4980
P 6000 3900
F 0 "Q2" H 5950 4050 40  0000 R CNN
F 1 "LB120A" H 6350 4000 40  0000 R CNN
F 2 "TO92" H 6250 3900 39  0000 C CNN
F 3 "~" H 6000 3900 60  0000 C CNN
	1    6000 3900
	1    0    0    -1  
$EndComp
$EndSCHEMATC
