PCBNEW-LibModule-V1  Чт 04 дек 2014 12:32:15
# encoding utf-8
Units mm
$INDEX
TRANS3
TRANS4
TRANS_CONVERT
TRANS_FEEDBACK
$EndINDEX
$MODULE TRANS3
Po 0 0 0 15 547EEC17 00000000 ~~
Li TRANS3
Sc 0
AR 
Op 0 0 0
T0 0 2 1 1 0 0.15 N V 21 N "TRANS3"
T1 0 -2 1 1 0 0.15 N V 21 N "VAL**"
DS -3 -6.5 3 -6.5 0.15 21
DS 3 -6.5 3 6.5 0.15 21
DS 3 6.5 -3 6.5 0.15 21
DS -3 6.5 -3 -6.5 0.15 21
$PAD
Sh "1" C 1.5 1.5 0 0 0
Dr 0.6 0 0
At STD N 00E0FFFF
Ne 0 ""
Po -3 -4
$EndPAD
$PAD
Sh "2" C 1.5 1.5 0 0 0
Dr 0.6 0 0
At STD N 00E0FFFF
Ne 0 ""
Po 3 -4
$EndPAD
$PAD
Sh "3" C 1.5 1.5 0 0 0
Dr 0.6 0 0
At STD N 00E0FFFF
Ne 0 ""
Po -3 0
$EndPAD
$PAD
Sh "4" C 1.5 1.5 0 0 0
Dr 0.6 0 0
At STD N 00E0FFFF
Ne 0 ""
Po 3 0
$EndPAD
$PAD
Sh "5" C 1.5 1.5 0 0 0
Dr 0.6 0 0
At STD N 00E0FFFF
Ne 0 ""
Po -3 4
$EndPAD
$PAD
Sh "6" C 1.5 1.5 0 0 0
Dr 0.6 0 0
At STD N 00E0FFFF
Ne 0 ""
Po 3 4
$EndPAD
$EndMODULE TRANS3
$MODULE TRANS4
Po 0 0 0 15 547D80EA 00000000 ~~
Li TRANS4
Sc 0
AR 
Op 0 0 0
T0 0 4 1 1 0 0.15 N V 21 N "TRANS4"
T1 0 -4 1 1 0 0.15 N V 21 N "VAL**"
DS -5.5 -6 5.5 -6 0.15 21
DS 5.5 -6 5.5 6 0.15 21
DS 5.5 6 -5.5 6 0.15 21
DS -5.5 6 -5.5 -6 0.15 21
$PAD
Sh "4" C 1.5 1.5 0 0 0
Dr 0.6 0 0
At STD N 00E0FFFF
Ne 0 ""
Po -4 -4
$EndPAD
$PAD
Sh "2" C 1.5 1.5 0 0 0
Dr 0.6 0 0
At STD N 00E0FFFF
Ne 0 ""
Po -4 4
$EndPAD
$PAD
Sh "1" C 1.5 1.5 0 0 0
Dr 0.6 0 0
At STD N 00E0FFFF
Ne 0 ""
Po 4 4
$EndPAD
$PAD
Sh "5" C 1.5 1.5 0 0 0
Dr 0.6 0 0
At STD N 00E0FFFF
Ne 0 ""
Po 4 -4
$EndPAD
$PAD
Sh "3" C 1.5 1.5 0 0 0
Dr 0.6 0 0
At STD N 00E0FFFF
Ne 0 ""
Po -4 1.5
$EndPAD
$EndMODULE TRANS4
$MODULE TRANS_CONVERT
Po 0 0 0 15 54800DFC 00000000 ~~
Li TRANS_CONVERT
Sc 0
AR 
Op 0 0 0
T0 0 1 1 1 0 0.15 N V 21 N "TRANS_CONVERT"
T1 0 -1 1 1 0 0.15 N V 21 N "VAL**"
DS -5.5 6 5.5 6 0.15 21
DS -5.5 -6 5.5 -6 0.15 21
DS 5.5 -6 5.5 6 0.15 21
DS -5.5 6 -5.5 -6 0.15 21
$PAD
Sh "1" C 1.5 1.5 0 0 0
Dr 0.6 0 0
At STD N 00E0FFFF
Ne 0 ""
Po -3.5 6.5
$EndPAD
$PAD
Sh "5" C 1.5 1.5 0 0 0
Dr 0.6 0 0
At STD N 00E0FFFF
Ne 0 ""
Po 3.5 6.5
$EndPAD
$PAD
Sh "2" C 1.5 1.5 0 0 0
Dr 0.6 0 0
At STD N 00E0FFFF
Ne 0 ""
Po -1.5 8.5
$EndPAD
$PAD
Sh "3" C 1.5 1.5 0 0 0
Dr 0.6 0 0
At STD N 00E0FFFF
Ne 0 ""
Po 0 6.5
$EndPAD
$PAD
Sh "4" C 1.5 1.5 0 0 0
Dr 0.6 0 0
At STD N 00E0FFFF
Ne 0 ""
Po 1.5 8.5
$EndPAD
$EndMODULE TRANS_CONVERT
$MODULE TRANS_FEEDBACK
Po 0 0 0 15 547FE847 00000000 ~~
Li TRANS_FEEDBACK
Sc 0
AR 
Op 0 0 0
T0 0 1 1 1 0 0.15 N V 21 N "TRANS_FEEDBACK"
T1 0 -0.5 1 1 0 0.15 N V 21 N "VAL**"
DC 0 0 2 0 0.15 21
DC 0 0 3 0 0.15 21
DC 0 0 6 0 0.15 21
DC 0 0 5 0 0.15 21
$PAD
Sh "1" C 1.5 1.5 0 0 0
Dr 0.6 0 0
At STD N 00E0FFFF
Ne 0 ""
Po -2 -6
$EndPAD
$PAD
Sh "2" C 1.5 1.5 0 0 0
Dr 0.6 0 0
At STD N 00E0FFFF
Ne 0 ""
Po 2 -6
$EndPAD
$PAD
Sh "5" C 1.5 1.5 0 0 0
Dr 0.6 0 0
At STD N 00E0FFFF
Ne 0 ""
Po -3 5.5
$EndPAD
$PAD
Sh "6" C 1.5 1.5 0 0 0
Dr 0.6 0 0
At STD N 00E0FFFF
Ne 0 ""
Po -5.5 3
$EndPAD
$PAD
Sh "4" C 1.5 1.5 0 0 0
Dr 0.6 0 0
At STD N 00E0FFFF
Ne 0 ""
Po 3 5.5
$EndPAD
$PAD
Sh "3" C 1.5 1.5 0 0 0
Dr 0.6 0 0
At STD N 00E0FFFF
Ne 0 ""
Po 5.5 3
$EndPAD
$EndMODULE TRANS_FEEDBACK
$EndLIBRARY
